{
  "status": "success",
  "data": {
    "categories": [],
    "products": {
      "count": 112,
      "next": "https://panel.supplyline.network/api/product/search-suggestions/?format=json&limit=10&offset=10",
      "previous": null,
      "results": [
        {
          "id": 1474,
          "brand": {
            "name": "Rice",
            "image": "https://d1ojphegpburrh.cloudfront.net/media/brand_images/supplyline_logo.png",
            "header_image": null,
            "slug": "rice"
          },
          "image": "https://d1ojphegpburrh.cloudfront.net/media/images/product/None/1474/%E0%A7%AB%E0%A7%A6_%E0%A6%95%E0%A6%9C_15.png",
          "charge": {
            "booking_price": 0,
            "current_charge": 2175,
            "discount_charge": null,
            "selling_price": 2300,
            "profit": 125,
            "is_event": false,
            "event_id": null,
            "highlight": false,
            "highlight_id": null,
            "groupping": false,
            "groupping_id": null,
            "campaign_section_id": null,
            "campaign_section": false,
            "message": null
          },
          "images": [
            {
              "id": 1467,
              "image": "https://d1ojphegpburrh.cloudfront.net/media/images/product/None/1474/%E0%A7%AB%E0%A7%A6_%E0%A6%95%E0%A6%9C_15.png",
              "is_primary": true,
              "product": 1474
            }
          ],
          "slug": "-z4yh",
          "product_name": "নজরুল পাইজাম- ৫০ কেজি",
          "model": "",
          "commission_type": "Percent",
          "amount": "0.00",
          "tag": "",
          "description": "             <font color=\"#000000\" face=\"Noto Sans, sans-serif\" style=\"margin: 0px; padding: 0px; font-size: 16px; text-align: justify; -webkit-text-stroke-width: 0.2px; background-color: rgb(247, 242, 255); letter-spacing: 0.14px;\"><span style=\"margin: 0px; padding: 0px; border: 0px; letter-spacing: -0.3px;\">প্রদর্শিত বিক্রয়মূল্য এবং লাভের পরিমাণ পরিবর্তনশীল। বাজার এবং&nbsp;</span></font><span style=\"margin: 0px; padding: 0px; border: 0px; font-size: 16px; text-align: justify; -webkit-text-stroke-width: 0.2px; background-color: rgb(247, 242, 255); color: rgb(0, 0, 0); font-family: &quot;Noto Sans&quot;, sans-serif; letter-spacing: -0.3px;\">বিক্রেতার</span><font color=\"#000000\" face=\"Noto Sans, sans-serif\" style=\"margin: 0px; padding: 0px; font-size: 16px; text-align: justify; -webkit-text-stroke-width: 0.2px; background-color: rgb(247, 242, 255); letter-spacing: 0.14px;\"><span style=\"margin: 0px; padding: 0px; border: 0px; letter-spacing: -0.3px;\">&nbsp;বিবেচনার উপর নির্ভরশীল।&nbsp;</span></font>              ",
          "note": "                          ",
          "embadded_video_link": "             ",
          "maximum_order": 100,
          "stock": 726,
          "is_back_order": false,
          "specification": "<|>",
          "warranty": "                          ",
          "pre_order": false,
          "product_review": 5,
          "is_seller": false,
          "is_phone": false,
          "will_show_emi": false,
          "badge": null,
          "is_active": true,
          "created_at": "2022-01-13T18:40:02.116182+06:00",
          "updated_at": "2022-05-17T11:42:32.421739+06:00",
          "language": null,
          "seller": "SupplyLine",
          "combo": null,
          "created_by": "qtecsl",
          "updated_by": null,
          "category": [
            18
          ],
          "related_product": [],
          "filter_value": []
        },
        {
          "id": 1477,
          "brand": {
            "name": "Rice",
            "image": "https://d1ojphegpburrh.cloudfront.net/media/brand_images/supplyline_logo.png",
            "header_image": null,
            "slug": "rice"
          },
          "image": "https://d1ojphegpburrh.cloudfront.net/media/images/product/None/1477/%E0%A7%AB%E0%A7%A6_%E0%A6%95%E0%A6%9C_19.png",
          "charge": {
            "booking_price": 0,
            "current_charge": 2835,
            "discount_charge": null,
            "selling_price": 3400,
            "profit": 565,
            "is_event": false,
            "event_id": null,
            "highlight": false,
            "highlight_id": null,
            "groupping": false,
            "groupping_id": null,
            "campaign_section_id": null,
            "campaign_section": false,
            "message": null
          },
          "images": [
            {
              "id": 1470,
              "image": "https://d1ojphegpburrh.cloudfront.net/media/images/product/None/1477/%E0%A7%AB%E0%A7%A6_%E0%A6%95%E0%A6%9C_19.png",
              "is_primary": true,
              "product": 1477
            }
          ],
          "slug": "-c368",
          "product_name": "সটেক্স মিনিকেট (নতুন) চাল- ৫০ কেজি",
          "model": "",
          "commission_type": "Percent",
          "amount": "0.00",
          "tag": "",
          "description": "                  <font color=\"#000000\" face=\"Noto Sans, sans-serif\" style=\"margin: 0px; padding: 0px; font-size: 16px; text-align: justify; -webkit-text-stroke-width: 0.2px; background-color: rgb(247, 242, 255); letter-spacing: 0.14px;\"><span style=\"margin: 0px; padding: 0px; border: 0px; letter-spacing: -0.3px;\">প্রদর্শিত বিক্রয়মূল্য এবং লাভের পরিমাণ পরিবর্তনশীল। বাজার এবং&nbsp;</span></font><span style=\"margin: 0px; padding: 0px; border: 0px; font-size: 16px; text-align: justify; -webkit-text-stroke-width: 0.2px; background-color: rgb(247, 242, 255); color: rgb(0, 0, 0); font-family: &quot;Noto Sans&quot;, sans-serif; letter-spacing: -0.3px;\">বিক্রেতার</span><font color=\"#000000\" face=\"Noto Sans, sans-serif\" style=\"margin: 0px; padding: 0px; font-size: 16px; text-align: justify; -webkit-text-stroke-width: 0.2px; background-color: rgb(247, 242, 255); letter-spacing: 0.14px;\"><span style=\"margin: 0px; padding: 0px; border: 0px; letter-spacing: -0.3px;\">&nbsp;বিবেচনার উপর নির্ভরশীল।&nbsp;</span></font>                   ",
          "note": "                                    ",
          "embadded_video_link": "                  ",
          "maximum_order": 100,
          "stock": 604,
          "is_back_order": false,
          "specification": "<|>",
          "warranty": "                                    ",
          "pre_order": false,
          "product_review": 5,
          "is_seller": false,
          "is_phone": false,
          "will_show_emi": false,
          "badge": null,
          "is_active": true,
          "created_at": "2022-01-16T14:16:58.955345+06:00",
          "updated_at": "2022-05-18T11:20:21.443339+06:00",
          "language": null,
          "seller": "SupplyLine",
          "combo": null,
          "created_by": "qtecsl",
          "updated_by": null,
          "category": [
            18
          ],
          "related_product": [],
          "filter_value": []
        },
        {
          "id": 13,
          "brand": {
            "name": "Abul Khair Consumer Goods",
            "image": "https://d1ojphegpburrh.cloudfront.net/media/brand_images/abul_Khair.png",
            "header_image": "https://d1ojphegpburrh.cloudfront.net/media/brand_images/Untitled_design_1.png",
            "slug": "abul-khair-consumer-goods"
          },
          "image": "https://d1ojphegpburrh.cloudfront.net/media/images/product/None/13/%E0%A7%A7%E0%A7%A6_%E0%A6%95%E0%A6%9C_1.png",
          "charge": {
            "booking_price": 0,
            "current_charge": 670,
            "discount_charge": null,
            "selling_price": 750,
            "profit": 80,
            "is_event": false,
            "event_id": null,
            "highlight": false,
            "highlight_id": null,
            "groupping": false,
            "groupping_id": null,
            "campaign_section_id": null,
            "campaign_section": false,
            "message": null
          },
          "images": [
            {
              "id": 8,
              "image": "https://d1ojphegpburrh.cloudfront.net/media/images/product/None/13/%E0%A7%A7%E0%A7%A6_%E0%A6%95%E0%A6%9C_1.png",
              "is_primary": true,
              "product": 13
            }
          ],
          "slug": "-tnjs",
          "product_name": "মার্কস গুড়া দুধ- ১ কেজি",
          "model": "milk",
          "commission_type": "Percent",
          "amount": "0.00",
          "tag": "milk",
          "description": "                <div><font color=\"#000000\" face=\"Noto Sans, sans-serif\" style=\"letter-spacing: 0.14px;\"><span style=\"font-size: 16px; letter-spacing: -0.3px;\">প্রদর্শিত বিক্রয়মূল্য এবং লাভের পরিমাণ পরিবর্তনশীল। বাজার এবং&nbsp;</span></font><span style=\"color: rgb(0, 0, 0); font-family: &quot;Noto Sans&quot;, sans-serif; font-size: 16px; letter-spacing: -0.3px;\">বিক্রেতার</span><font color=\"#000000\" face=\"Noto Sans, sans-serif\" style=\"letter-spacing: 0.14px;\"><span style=\"font-size: 16px; letter-spacing: -0.3px;\">&nbsp;বিবেচনার উপর নির্ভরশীল।</span></font><br></div>                       ",
          "note": "                                      ",
          "embadded_video_link": "                   ",
          "maximum_order": 100,
          "stock": 6,
          "is_back_order": false,
          "specification": "<|>",
          "warranty": "                                      ",
          "pre_order": false,
          "product_review": 5,
          "is_seller": false,
          "is_phone": false,
          "will_show_emi": false,
          "badge": null,
          "is_active": true,
          "created_at": "2021-07-08T15:13:44.820551+06:00",
          "updated_at": "2022-05-16T11:21:35.777421+06:00",
          "language": null,
          "seller": "AKCG",
          "combo": null,
          "created_by": "qtecsl",
          "updated_by": null,
          "category": [
            17
          ],
          "related_product": [],
          "filter_value": []
        },
        {
          "id": 39,
          "brand": {
            "name": "Abul Khair Consumer Goods",
            "image": "https://d1ojphegpburrh.cloudfront.net/media/brand_images/abul_Khair.png",
            "header_image": "https://d1ojphegpburrh.cloudfront.net/media/brand_images/Untitled_design_1.png",
            "slug": "abul-khair-consumer-goods"
          },
          "image": "https://d1ojphegpburrh.cloudfront.net/media/images/product/None/39/Untitled_design_4.png",
          "charge": {
            "booking_price": 0,
            "current_charge": 65,
            "discount_charge": null,
            "selling_price": null,
            "profit": null,
            "is_event": false,
            "event_id": null,
            "highlight": false,
            "highlight_id": null,
            "groupping": false,
            "groupping_id": null,
            "campaign_section_id": null,
            "campaign_section": false,
            "message": null
          },
          "images": [
            {
              "id": 32,
              "image": "https://d1ojphegpburrh.cloudfront.net/media/images/product/None/39/Untitled_design_4.png",
              "is_primary": true,
              "product": 39
            }
          ],
          "slug": "-w7vm",
          "product_name": "সিলন টি-ব্যাগ",
          "model": "Tea",
          "commission_type": "Percent",
          "amount": "0.00",
          "tag": "Tea",
          "description": "    ",
          "note": "          ",
          "embadded_video_link": "     ",
          "maximum_order": 100,
          "stock": 502,
          "is_back_order": false,
          "specification": "<|>",
          "warranty": "          ",
          "pre_order": false,
          "product_review": 5,
          "is_seller": false,
          "is_phone": false,
          "will_show_emi": false,
          "badge": null,
          "is_active": true,
          "created_at": "2021-07-08T17:43:30.513816+06:00",
          "updated_at": "2022-05-15T14:08:20.256401+06:00",
          "language": null,
          "seller": "AKCG",
          "combo": null,
          "created_by": "qtecsl",
          "updated_by": null,
          "category": [
            8
          ],
          "related_product": [],
          "filter_value": []
        },
        {
          "id": 43,
          "brand": {
            "name": "Abul Khair Consumer Goods",
            "image": "https://d1ojphegpburrh.cloudfront.net/media/brand_images/abul_Khair.png",
            "header_image": "https://d1ojphegpburrh.cloudfront.net/media/brand_images/Untitled_design_1.png",
            "slug": "abul-khair-consumer-goods"
          },
          "image": "https://d1ojphegpburrh.cloudfront.net/media/images/product/None/43/seylon_50gm.png",
          "charge": {
            "booking_price": 0,
            "current_charge": 240,
            "discount_charge": null,
            "selling_price": null,
            "profit": null,
            "is_event": false,
            "event_id": null,
            "highlight": false,
            "highlight_id": null,
            "groupping": false,
            "groupping_id": null,
            "campaign_section_id": null,
            "campaign_section": false,
            "message": null
          },
          "images": [
            {
              "id": 36,
              "image": "https://d1ojphegpburrh.cloudfront.net/media/images/product/None/43/seylon_50gm.png",
              "is_primary": true,
              "product": 43
            }
          ],
          "slug": "-gjn8",
          "product_name": "সিলন চা (৫০ গ্রাম) - ১০ পিস",
          "model": "Tea",
          "commission_type": "Percent",
          "amount": "0.00",
          "tag": "Tea",
          "description": "   milk powder   ",
          "note": "                ",
          "embadded_video_link": "        ",
          "maximum_order": 100,
          "stock": 939,
          "is_back_order": false,
          "specification": "<|>",
          "warranty": "                ",
          "pre_order": false,
          "product_review": 5,
          "is_seller": false,
          "is_phone": false,
          "will_show_emi": false,
          "badge": null,
          "is_active": true,
          "created_at": "2021-07-08T18:00:10.856797+06:00",
          "updated_at": "2022-05-15T13:54:38.052967+06:00",
          "language": null,
          "seller": "AKCG",
          "combo": null,
          "created_by": "qtecsl",
          "updated_by": null,
          "category": [
            8
          ],
          "related_product": [],
          "filter_value": []
        },
        {
          "id": 46,
          "brand": {
            "name": "Abul Khair Consumer Goods",
            "image": "https://d1ojphegpburrh.cloudfront.net/media/brand_images/abul_Khair.png",
            "header_image": "https://d1ojphegpburrh.cloudfront.net/media/brand_images/Untitled_design_1.png",
            "slug": "abul-khair-consumer-goods"
          },
          "image": "https://d1ojphegpburrh.cloudfront.net/media/images/product/None/46/seylon400g.png",
          "charge": {
            "booking_price": 0,
            "current_charge": 180,
            "discount_charge": null,
            "selling_price": null,
            "profit": null,
            "is_event": false,
            "event_id": null,
            "highlight": false,
            "highlight_id": null,
            "groupping": false,
            "groupping_id": null,
            "campaign_section_id": null,
            "campaign_section": false,
            "message": null
          },
          "images": [
            {
              "id": 39,
              "image": "https://d1ojphegpburrh.cloudfront.net/media/images/product/None/46/seylon400g.png",
              "is_primary": true,
              "product": 46
            }
          ],
          "slug": "-tbte",
          "product_name": "সিলন চা ৪০০ গ্রাম",
          "model": "Tea",
          "commission_type": "Percent",
          "amount": "0.00",
          "tag": "Tea",
          "description": "                       ",
          "note": "                      ",
          "embadded_video_link": "           ",
          "maximum_order": 100,
          "stock": 563,
          "is_back_order": false,
          "specification": "<|>",
          "warranty": "                      ",
          "pre_order": false,
          "product_review": 5,
          "is_seller": false,
          "is_phone": false,
          "will_show_emi": false,
          "badge": null,
          "is_active": true,
          "created_at": "2021-07-08T18:04:17.998683+06:00",
          "updated_at": "2022-05-15T13:54:22.415950+06:00",
          "language": null,
          "seller": "AKCG",
          "combo": null,
          "created_by": "qtecsl",
          "updated_by": null,
          "category": [
            8
          ],
          "related_product": [],
          "filter_value": []
        },
        {
          "id": 47,
          "brand": {
            "name": "Abul Khair Consumer Goods",
            "image": "https://d1ojphegpburrh.cloudfront.net/media/brand_images/abul_Khair.png",
            "header_image": "https://d1ojphegpburrh.cloudfront.net/media/brand_images/Untitled_design_1.png",
            "slug": "abul-khair-consumer-goods"
          },
          "image": "https://d1ojphegpburrh.cloudfront.net/media/images/product/None/47/seylon_500gm.png",
          "charge": {
            "booking_price": 0,
            "current_charge": 700,
            "discount_charge": null,
            "selling_price": null,
            "profit": null,
            "is_event": false,
            "event_id": null,
            "highlight": false,
            "highlight_id": null,
            "groupping": false,
            "groupping_id": null,
            "campaign_section_id": null,
            "campaign_section": false,
            "message": null
          },
          "images": [
            {
              "id": 40,
              "image": "https://d1ojphegpburrh.cloudfront.net/media/images/product/None/47/seylon_500gm.png",
              "is_primary": true,
              "product": 47
            }
          ],
          "slug": "-vgzj",
          "product_name": "সিলন চা (৫০০ গ্রাম) - ৪পিস",
          "model": "Tea",
          "commission_type": "Percent",
          "amount": "0.00",
          "tag": "Tea",
          "description": "             ",
          "note": "            ",
          "embadded_video_link": "      ",
          "maximum_order": 100,
          "stock": 513,
          "is_back_order": false,
          "specification": "<|>",
          "warranty": "            ",
          "pre_order": false,
          "product_review": 5,
          "is_seller": false,
          "is_phone": false,
          "will_show_emi": false,
          "badge": null,
          "is_active": true,
          "created_at": "2021-07-08T18:05:23.195794+06:00",
          "updated_at": "2022-05-15T13:54:06.226723+06:00",
          "language": null,
          "seller": "AKCG",
          "combo": null,
          "created_by": "qtecsl",
          "updated_by": null,
          "category": [
            8
          ],
          "related_product": [],
          "filter_value": []
        },
        {
          "id": 53,
          "brand": {
            "name": "Abul Khair Consumer Goods",
            "image": "https://d1ojphegpburrh.cloudfront.net/media/brand_images/abul_Khair.png",
            "header_image": "https://d1ojphegpburrh.cloudfront.net/media/brand_images/Untitled_design_1.png",
            "slug": "abul-khair-consumer-goods"
          },
          "image": "https://d1ojphegpburrh.cloudfront.net/media/images/product/None/53/%E0%A7%A7_%E0%A6%95%E0%A6%9C.png",
          "charge": {
            "booking_price": 0,
            "current_charge": 541,
            "discount_charge": null,
            "selling_price": 540,
            "profit": -1,
            "is_event": false,
            "event_id": null,
            "highlight": false,
            "highlight_id": null,
            "groupping": false,
            "groupping_id": null,
            "campaign_section_id": null,
            "campaign_section": false,
            "message": null
          },
          "images": [
            {
              "id": 46,
              "image": "https://d1ojphegpburrh.cloudfront.net/media/images/product/None/53/%E0%A7%A7_%E0%A6%95%E0%A6%9C.png",
              "is_primary": true,
              "product": 53
            }
          ],
          "slug": "-wvyb",
          "product_name": "স্টারশিপ ফুলক্রিম মিল্ক পাউডার- ১ কেজি",
          "model": "Milk",
          "commission_type": "Percent",
          "amount": "0.00",
          "tag": "Milk",
          "description": "            MRP: 520 TK            ",
          "note": "                                  ",
          "embadded_video_link": "                 ",
          "maximum_order": 100,
          "stock": 6,
          "is_back_order": false,
          "specification": "<|>",
          "warranty": "                                  ",
          "pre_order": false,
          "product_review": 5,
          "is_seller": false,
          "is_phone": false,
          "will_show_emi": false,
          "badge": null,
          "is_active": true,
          "created_at": "2021-07-08T18:16:12.754951+06:00",
          "updated_at": "2022-05-16T11:20:24.005584+06:00",
          "language": null,
          "seller": "AKCG",
          "combo": null,
          "created_by": "qtecsl",
          "updated_by": null,
          "category": [
            17
          ],
          "related_product": [],
          "filter_value": []
        },
        {
          "id": 57,
          "brand": {
            "name": "Abul Khair Consumer Goods",
            "image": "https://d1ojphegpburrh.cloudfront.net/media/brand_images/abul_Khair.png",
            "header_image": "https://d1ojphegpburrh.cloudfront.net/media/brand_images/Untitled_design_1.png",
            "slug": "abul-khair-consumer-goods"
          },
          "image": "https://d1ojphegpburrh.cloudfront.net/media/images/product/None/57/Untitled_design_2.png",
          "charge": {
            "booking_price": 0,
            "current_charge": 135,
            "discount_charge": null,
            "selling_price": 158,
            "profit": 23,
            "is_event": false,
            "event_id": null,
            "highlight": false,
            "highlight_id": null,
            "groupping": false,
            "groupping_id": null,
            "campaign_section_id": null,
            "campaign_section": false,
            "message": null
          },
          "images": [
            {
              "id": 50,
              "image": "https://d1ojphegpburrh.cloudfront.net/media/images/product/None/57/Untitled_design_2.png",
              "is_primary": true,
              "product": 57
            }
          ],
          "slug": "-k2c3",
          "product_name": "মার্কস ফুলক্রিম মিল্ক পাউডার- ২০০ গ্রাম",
          "model": "Milk",
          "commission_type": "Percent",
          "amount": "0.00",
          "tag": "Milk",
          "description": "      Milk      ",
          "note": "                          ",
          "embadded_video_link": "             ",
          "maximum_order": 100,
          "stock": 313,
          "is_back_order": false,
          "specification": "<|>",
          "warranty": "                          ",
          "pre_order": false,
          "product_review": 5,
          "is_seller": false,
          "is_phone": false,
          "will_show_emi": false,
          "badge": null,
          "is_active": true,
          "created_at": "2021-07-08T18:26:29.745410+06:00",
          "updated_at": "2022-05-16T15:23:52.490001+06:00",
          "language": null,
          "seller": "AKCG",
          "combo": null,
          "created_by": "qtecsl",
          "updated_by": null,
          "category": [
            17
          ],
          "related_product": [],
          "filter_value": []
        },
        {
          "id": 1496,
          "brand": {
            "name": "Teer",
            "image": "https://d1ojphegpburrh.cloudfront.net/media/brand_images/Untitled_design_14.png",
            "header_image": "https://d1ojphegpburrh.cloudfront.net/media/brand_images/Untitled_design_13.png",
            "slug": "teer-a0y4"
          },
          "image": "https://d1ojphegpburrh.cloudfront.net/media/images/product/None/1496/teer.png",
          "charge": {
            "booking_price": 0,
            "current_charge": 88,
            "discount_charge": null,
            "selling_price": 150,
            "profit": 62,
            "is_event": false,
            "event_id": null,
            "highlight": false,
            "highlight_id": null,
            "groupping": false,
            "groupping_id": null,
            "campaign_section_id": null,
            "campaign_section": false,
            "message": null
          },
          "images": [
            {
              "id": 1489,
              "image": "https://d1ojphegpburrh.cloudfront.net/media/images/product/None/1496/teer.png",
              "is_primary": true,
              "product": 1496
            }
          ],
          "slug": "teer-water-500ml-12pcs-1carton",
          "product_name": "Teer Water 500ml- 12Pcs (1Carton)",
          "model": "",
          "commission_type": "Percent",
          "amount": "0.00",
          "tag": "",
          "description": " <font color=\"#000000\" face=\"Noto Sans, sans-serif\" style=\"letter-spacing: 0.14px;\"><span style=\"font-size: 16px; letter-spacing: -0.3px;\">প্রদর্শিত বিক্রয়মূল্য এবং লাভের পরিমাণ পরিবর্তনশীল। বাজার এবং&nbsp;</span></font><span style=\"color: rgb(0, 0, 0); font-family: &quot;Noto Sans&quot;, sans-serif; font-size: 16px; letter-spacing: -0.3px;\">বিক্রেতার</span><font color=\"#000000\" face=\"Noto Sans, sans-serif\" style=\"letter-spacing: 0.14px;\"><span style=\"font-size: 16px; letter-spacing: -0.3px;\">&nbsp;বিবেচনার উপর নির্ভরশীল।</span></font>  ",
          "note": "  ",
          "embadded_video_link": " ",
          "maximum_order": 100,
          "stock": 986,
          "is_back_order": false,
          "specification": "<|>",
          "warranty": "  ",
          "pre_order": false,
          "product_review": 5,
          "is_seller": false,
          "is_phone": false,
          "will_show_emi": false,
          "badge": null,
          "is_active": true,
          "created_at": "2022-02-08T11:28:39.060665+06:00",
          "updated_at": "2022-05-18T02:05:32.939971+06:00",
          "language": null,
          "seller": "M/S S.S Traders",
          "combo": null,
          "created_by": "qtecsl",
          "updated_by": null,
          "category": [
            30
          ],
          "related_product": [],
          "filter_value": []
        }
      ]
    }
  }
}